{
  "sourceDefinitionId": "fb141f29-be2a-450b-a4f2-2cd203a00f84",
  "documentationUrl": "https://docs.airbyte.io/integrations/sources/rd-station-marketing",
  "connectionSpecification": {
    "type": "object",
    "title": "RD Station Marketing Spec",
    "$schema": "http://json-schema.org/draft-07/schema#",
    "required": [
      "start_date"
    ],
    "properties": {
      "start_date": {
        "type": "string",
        "title": "Start Date",
        "pattern": "^[0-9]{4}-[0-9]{2}-[0-9]{2}T[0-9]{2}:[0-9]{2}:[0-9]{2}Z$",
        "examples": [
          "2017-01-25T00:00:00Z"
        ],
        "description": "UTC date and time in the format 2017-01-25T00:00:00Z. Any data before this date will not be replicated. When specified and not None, then stream will behave as incremental"
      },
      "authorization": {
        "type": "object",
        "oneOf": [
          {
            "type": "object",
            "title": "Sign in via RD Station (OAuth)",
            "required": [
              "auth_type"
            ],
            "properties": {
              "auth_type": {
                "type": "string",
                "const": "Client",
                "order": 0
              },
              "client_id": {
                "type": "string",
                "title": "Client ID",
                "description": "The Client ID of your RD Station developer application.",
                "airbyte_secret": true
              },
              "client_secret": {
                "type": "string",
                "title": "Client Secret",
                "description": "The Client Secret of your RD Station developer application",
                "airbyte_secret": true
              },
              "refresh_token": {
                "type": "string",
                "title": "Refresh Token",
                "description": "The token for obtaining the new access token.",
                "airbyte_secret": true
              }
            }
          }
        ],
        "title": "Authentication Type",
        "description": "Choose one of the possible authorization method"
      }
    },
    "additionalProperties": true
  },
  "advancedAuth": {
    "authFlowType": "oauth2.0",
    "predicateKey": [],
    "oauthConfigSpecification": {
      "completeOAuthOutputSpecification": {
        "type": "object",
        "properties": {
          "refresh_token": {
            "type": "string",
            "path_in_connector_config": [
              "authorization",
              "refresh_token"
            ]
          }
        },
        "additionalProperties": true
      },
      "completeOAuthServerInputSpecification": {
        "type": "object",
        "properties": {
          "client_id": {
            "type": "string"
          },
          "client_secret": {
            "type": "string"
          }
        },
        "additionalProperties": true
      },
      "completeOAuthServerOutputSpecification": {
        "type": "object",
        "properties": {
          "client_id": {
            "type": "string",
            "path_in_connector_config": [
              "authorization",
              "client_id"
            ]
          },
          "client_secret": {
            "type": "string",
            "path_in_connector_config": [
              "authorization",
              "client_secret"
            ]
          }
        },
        "additionalProperties": true
      }
    }
  },
  "jobInfo": {
    "id": "20393ce9-57eb-40a4-9443-fbd7bd6fc916",
    "configType": "get_spec",
    "configId": "Optional.empty",
    "createdAt": 1705523894504,
    "endedAt": 1705523894504,
    "succeeded": true,
    "connectorConfigurationUpdated": false,
    "logs": {
      "logLines": []
    }
  }
}