{
  "sourceDefinitionId": "46b25e70-c980-4590-a811-8deaf50ee09f",
  "documentationUrl": "https://docs.airbyte.com/integrations/sources/emailoctopus",
  "connectionSpecification": {
    "type": "object",
    "title": "EmailOctopus Spec",
    "$schema": "http://json-schema.org/draft-07/schema#",
    "required": [
      "api_key"
    ],
    "properties": {
      "api_key": {
        "type": "string",
        "title": "EmailOctopus API key",
        "description": "EmailOctopus API Key. See the <a href=\"https://help.emailoctopus.com/article/165-how-to-create-and-delete-api-keys\">docs</a> for information on how to generate this key.",
        "airbyte_secret": true
      }
    },
    "additionalProperties": true
  },
  "jobInfo": {
    "id": "8c8d958e-125b-4378-8baa-9c556217b74b",
    "configType": "get_spec",
    "configId": "Optional.empty",
    "createdAt": 1705523892973,
    "endedAt": 1705523892973,
    "succeeded": true,
    "connectorConfigurationUpdated": false,
    "logs": {
      "logLines": []
    }
  }
}