{
  "sourceDefinitionId": "47f25999-dd5e-4636-8c39-e7cea2453331",
  "documentationUrl": "https://docs.airbyte.com/integrations/sources/bing-ads",
  "connectionSpecification": {
    "type": "object",
    "title": "Bing Ads Spec",
    "$schema": "http://json-schema.org/draft-07/schema#",
    "required": [
      "developer_token",
      "client_id",
      "refresh_token",
      "reports_start_date"
    ],
    "properties": {
      "client_id": {
        "type": "string",
        "order": 1,
        "title": "Client ID",
        "description": "The Client ID of your Microsoft Advertising developer application.",
        "airbyte_secret": true
      },
      "tenant_id": {
        "type": "string",
        "order": 0,
        "title": "Tenant ID",
        "default": "common",
        "description": "The Tenant ID of your Microsoft Advertising developer application. Set this to \"common\" unless you know you need a different value.",
        "airbyte_secret": true
      },
      "auth_method": {
        "type": "string",
        "const": "oauth2.0"
      },
      "client_secret": {
        "type": "string",
        "order": 2,
        "title": "Client Secret",
        "default": "",
        "description": "The Client Secret of your Microsoft Advertising developer application.",
        "airbyte_secret": true
      },
      "refresh_token": {
        "type": "string",
        "order": 3,
        "title": "Refresh Token",
        "description": "Refresh Token to renew the expired Access Token.",
        "airbyte_secret": true
      },
      "developer_token": {
        "type": "string",
        "order": 4,
        "title": "Developer Token",
        "description": "Developer token associated with user. See more info <a href=\"https://docs.microsoft.com/en-us/advertising/guides/get-started?view=bingads-13#get-developer-token\"> in the docs</a>.",
        "airbyte_secret": true
      },
      "lookback_window": {
        "type": "integer",
        "order": 6,
        "title": "Lookback window",
        "default": 0,
        "maximum": 90,
        "minimum": 0,
        "description": "Also known as attribution or conversion window. How far into the past to look for records (in days). If your conversion window has an hours/minutes granularity, round it up to the number of days exceeding. Used only for performance report streams in incremental mode."
      },
      "reports_start_date": {
        "type": "string",
        "order": 5,
        "title": "Reports replication start date",
        "format": "date",
        "default": "2020-01-01",
        "description": "The start date from which to begin replicating report data. Any data generated before this date will not be replicated in reports. This is a UTC date in YYYY-MM-DD format."
      }
    },
    "additionalProperties": true
  },
  "advancedAuth": {
    "authFlowType": "oauth2.0",
    "predicateKey": [
      "auth_method"
    ],
    "predicateValue": "oauth2.0",
    "oauthConfigSpecification": {
      "oauthUserInputFromConnectorConfigSpecification": {
        "type": "object",
        "properties": {
          "tenant_id": {
            "type": "string",
            "path_in_connector_config": [
              "tenant_id"
            ]
          }
        },
        "additionalProperties": false
      },
      "completeOAuthOutputSpecification": {
        "type": "object",
        "properties": {
          "refresh_token": {
            "type": "string",
            "path_in_connector_config": [
              "refresh_token"
            ]
          }
        },
        "additionalProperties": false
      },
      "completeOAuthServerInputSpecification": {
        "type": "object",
        "properties": {
          "client_id": {
            "type": "string"
          },
          "client_secret": {
            "type": "string"
          }
        },
        "additionalProperties": false
      },
      "completeOAuthServerOutputSpecification": {
        "type": "object",
        "properties": {
          "client_id": {
            "type": "string",
            "path_in_connector_config": [
              "client_id"
            ]
          },
          "client_secret": {
            "type": "string",
            "path_in_connector_config": [
              "client_secret"
            ]
          }
        },
        "additionalProperties": false
      }
    }
  },
  "jobInfo": {
    "id": "01a58094-00e2-4b03-8765-8002cc87d09b",
    "configType": "get_spec",
    "configId": "Optional.empty",
    "createdAt": 1705523877836,
    "endedAt": 1705523877836,
    "succeeded": true,
    "connectorConfigurationUpdated": false,
    "logs": {
      "logLines": []
    }
  }
}