{
  "sourceDefinitionId": "f77914a1-442b-4195-9355-8810a1f4ed3f",
  "name": "Unleash",
  "dockerRepository": "airbyte/source-unleash",
  "dockerImageTag": "0.1.0",
  "documentationUrl": "https://docs.airbyte.com/integrations/sources/unleash",
  "protocolVersion": "0.2.0",
  "custom": false,
  "supportLevel": "community",
  "releaseStage": "alpha",
  "sourceType": "api"
}