{
  "sourceDefinitionId": "5807d72f-0abc-49f9-8fa5-ae820007032b",
  "documentationUrl": "https://docs.airbyte.com/integrations/sources/airtable",
  "connectionSpecification": {
    "type": "object",
    "title": "Weather API Spec",
    "$schema": "http://json-schema.org/draft-07/schema#",
    "required": [
      "apiKey",
      "stocksTicker",
      "multiplier",
      "timespan",
      "start_date",
      "end_date"
    ],
    "properties": {
      "sort": {
        "type": "string",
        "title": "Sort",
        "examples": [
          "asc",
          "desc"
        ],
        "description": "Sort the results by timestamp. asc will return results in ascending order (oldest at the top), desc will return results in descending order (newest at the top)."
      },
      "limit": {
        "type": "integer",
        "title": "Limit",
        "examples": [
          100,
          120
        ],
        "description": "The target date for the aggregate window."
      },
      "apiKey": {
        "type": "string",
        "title": "API Key",
        "description": "Your API ACCESS Key",
        "airbyte_secret": true
      },
      "adjusted": {
        "type": "string",
        "title": "Adjusted",
        "examples": [
          "true",
          "false"
        ],
        "description": "Determines whether or not the results are adjusted for splits. By default, results are adjusted and set to true. Set this to false to get results that are NOT adjusted for splits."
      },
      "end_date": {
        "type": "string",
        "title": "End Date",
        "format": "date",
        "pattern": "^[0-9]{4}-[0-9]{2}-[0-9]{2}$",
        "examples": [
          "2020-10-14"
        ],
        "description": "The target date for the aggregate window."
      },
      "timespan": {
        "type": "string",
        "title": "Timespan",
        "examples": [
          "day"
        ],
        "description": "The size of the time window."
      },
      "multiplier": {
        "type": "integer",
        "title": "Multiplier",
        "examples": [
          1,
          2
        ],
        "description": "The size of the timespan multiplier."
      },
      "start_date": {
        "type": "string",
        "title": "Start Date",
        "format": "date",
        "pattern": "^[0-9]{4}-[0-9]{2}-[0-9]{2}$",
        "examples": [
          "2020-10-14"
        ],
        "description": "The beginning date for the aggregate window."
      },
      "stocksTicker": {
        "type": "string",
        "title": "Stock Ticker",
        "examples": [
          "IBM",
          "MSFT"
        ],
        "description": "The exchange symbol that this item is traded under."
      }
    },
    "additionalProperties": true
  },
  "jobInfo": {
    "id": "f557b440-2a99-4d6e-9624-183ed2f2b902",
    "configType": "get_spec",
    "configId": "Optional.empty",
    "createdAt": 1705523876106,
    "endedAt": 1705523876106,
    "succeeded": true,
    "connectorConfigurationUpdated": false,
    "logs": {
      "logLines": []
    }
  }
}