{
  "sourceDefinitionId": "60a1efcc-c31c-4c63-b508-5b48b6a9f4a6",
  "documentationUrl": "https://docs.airbyte.com/integrations/sources/kyve",
  "connectionSpecification": {
    "type": "object",
    "title": "KYVE Spec",
    "$schema": "http://json-schema.org/draft-07/schema#",
    "required": [
      "pool_ids",
      "start_ids"
    ],
    "properties": {
      "pool_ids": {
        "type": "string",
        "order": 0,
        "title": "Pool-IDs",
        "examples": [
          "0",
          "0,1"
        ],
        "description": "The IDs of the KYVE storage pool you want to archive. (Comma separated)"
      },
      "url_base": {
        "type": "string",
        "order": 2,
        "title": "KYVE-API URL Base",
        "default": "https://api.korellia.kyve.network",
        "examples": [
          "https://api.korellia.kyve.network/",
          "https://api.beta.kyve.network/"
        ],
        "description": "URL to the KYVE Chain API."
      },
      "max_pages": {
        "type": "integer",
        "order": 3,
        "description": "The maximum amount of pages to go trough. Set to 'null' for all pages.",
        "airbyte_hidden": true
      },
      "page_size": {
        "type": "integer",
        "order": 4,
        "default": 100,
        "description": "The pagesize for pagination, smaller numbers are used in integration tests.",
        "airbyte_hidden": true
      },
      "start_ids": {
        "type": "string",
        "order": 1,
        "title": "Bundle-Start-IDs",
        "examples": [
          "0",
          "0,0"
        ],
        "description": "The start-id defines, from which bundle id the pipeline should start to extract the data (Comma separated)"
      }
    }
  },
  "jobInfo": {
    "id": "409f5601-7491-43a0-8d2e-4fb0fd94c4e3",
    "configType": "get_spec",
    "configId": "Optional.empty",
    "createdAt": 1705523891478,
    "endedAt": 1705523891478,
    "succeeded": true,
    "connectorConfigurationUpdated": false,
    "logs": {
      "logLines": []
    }
  }
}