{
  "sourceDefinitionId": "2e875208-0c0b-4ee4-9e92-1cb3156ea799",
  "documentationUrl": "https://docs.airbyte.com/integrations/sources/iterable",
  "connectionSpecification": {
    "type": "object",
    "title": "Iterable Spec",
    "$schema": "http://json-schema.org/draft-07/schema#",
    "required": [
      "start_date",
      "api_key"
    ],
    "properties": {
      "api_key": {
        "type": "string",
        "order": 0,
        "title": "API Key",
        "description": "Iterable API Key. See the <a href=\"https://docs.airbyte.com/integrations/sources/iterable\">docs</a> for more information on how to obtain this key.",
        "airbyte_secret": true
      },
      "start_date": {
        "type": "string",
        "order": 1,
        "title": "Start Date",
        "format": "date-time",
        "pattern": "^[0-9]{4}-[0-9]{2}-[0-9]{2}T[0-9]{2}:[0-9]{2}:[0-9]{2}Z$",
        "examples": [
          "2021-04-01T00:00:00Z"
        ],
        "description": "The date from which you'd like to replicate data for Iterable, in the format YYYY-MM-DDT00:00:00Z. All data generated after this date will be replicated."
      }
    },
    "additionalProperties": true
  },
  "jobInfo": {
    "id": "c153541c-0e50-4deb-8f66-2e2b5bca5cb1",
    "configType": "get_spec",
    "configId": "Optional.empty",
    "createdAt": 1705523894899,
    "endedAt": 1705523894899,
    "succeeded": true,
    "connectorConfigurationUpdated": false,
    "logs": {
      "logLines": []
    }
  }
}