{
  "sourceDefinitionId": "ec5f3102-fb31-4916-99ae-864faf8e7e25",
  "documentationUrl": "https://docs.airbyte.com/integrations/sources/sap-fieldglass",
  "connectionSpecification": {
    "type": "object",
    "title": "Sap Fieldglass Spec",
    "$schema": "http://json-schema.org/draft-07/schema#",
    "required": [
      "api_key"
    ],
    "properties": {
      "api_key": {
        "type": "string",
        "description": "API Key",
        "airbyte_secret": true
      }
    },
    "additionalProperties": true
  },
  "jobInfo": {
    "id": "6d8fbbeb-1bb7-4600-9c4c-128f2ac32300",
    "configType": "get_spec",
    "configId": "Optional.empty",
    "createdAt": 1705523882278,
    "endedAt": 1705523882278,
    "succeeded": true,
    "connectorConfigurationUpdated": false,
    "logs": {
      "logLines": []
    }
  }
}