{
  "sourceDefinitionId": "df38991e-f35b-4af2-996d-36817f614587",
  "documentationUrl": "https://docs.airbyte.com/integrations/sources/news-api",
  "connectionSpecification": {
    "type": "object",
    "title": "News Api Spec",
    "$schema": "http://json-schema.org/draft-07/schema#",
    "required": [
      "api_key",
      "country",
      "category",
      "sort_by"
    ],
    "properties": {
      "api_key": {
        "type": "string",
        "order": 0,
        "description": "API Key",
        "airbyte_secret": true
      },
      "country": {
        "enum": [
          "ae",
          "ar",
          "at",
          "au",
          "be",
          "bg",
          "br",
          "ca",
          "ch",
          "cn",
          "co",
          "cu",
          "cz",
          "de",
          "eg",
          "fr",
          "gb",
          "gr",
          "hk",
          "hu",
          "id",
          "ie",
          "il",
          "in",
          "it",
          "jp",
          "kr",
          "lt",
          "lv",
          "ma",
          "mx",
          "my",
          "ng",
          "nl",
          false,
          "nz",
          "ph",
          "pl",
          "pt",
          "ro",
          "rs",
          "ru",
          "sa",
          "se",
          "sg",
          "si",
          "sk",
          "th",
          "tr",
          "tw",
          "ua",
          "us",
          "ve",
          "za"
        ],
        "type": "string",
        "order": 9,
        "default": "us",
        "description": "The 2-letter ISO 3166-1 code of the country you want to get headlines\nfor. You can't mix this with the sources parameter.\n"
      },
      "domains": {
        "type": "array",
        "items": {
          "type": "string"
        },
        "order": 4,
        "description": "A comma-seperated string of domains (eg bbc.co.uk, techcrunch.com,\nengadget.com) to restrict the search to.\n"
      },
      "sort_by": {
        "enum": [
          "relevancy",
          "popularity",
          "publishedAt"
        ],
        "type": "string",
        "order": 11,
        "default": "publishedAt",
        "description": "The order to sort the articles in. Possible options: relevancy,\npopularity, publishedAt.\n"
      },
      "sources": {
        "type": "array",
        "items": {
          "type": "string"
        },
        "order": 3,
        "description": "Identifiers (maximum 20) for the news sources or blogs you want\nheadlines from. Use the `/sources` endpoint to locate these\nprogrammatically or look at the sources index:\nhttps://newsapi.com/sources. Will override both country and category.\n"
      },
      "category": {
        "enum": [
          "business",
          "entertainment",
          "general",
          "health",
          "science",
          "sports",
          "technology"
        ],
        "type": "string",
        "order": 10,
        "default": "business",
        "description": "The category you want to get top headlines for."
      },
      "end_date": {
        "type": "string",
        "order": 7,
        "pattern": "^[0-9]{4}-[0-9]{2}-[0-9]{2}(T[0-9]{2}:[0-9]{2}:[0-9]{2})?$",
        "examples": [
          "2021-01-01",
          "2021-01-01T12:00:00"
        ],
        "description": "A date and optional time for the newest article allowed. This should\nbe in ISO 8601 format.\n"
      },
      "language": {
        "enum": [
          "ar",
          "de",
          "en",
          "es",
          "fr",
          "he",
          "it",
          "nl",
          false,
          "pt",
          "ru",
          "se",
          "ud",
          "zh"
        ],
        "type": "string",
        "order": 8,
        "description": "The 2-letter ISO-639-1 code of the language you want to get headlines\nfor. Possible options: ar de en es fr he it nl no pt ru se ud zh.\n"
      },
      "search_in": {
        "type": "array",
        "items": {
          "enum": [
            "title",
            "description",
            "content"
          ],
          "type": "string"
        },
        "order": 2,
        "description": "Where to apply search query. Possible values are: title, description,\ncontent.\n"
      },
      "start_date": {
        "type": "string",
        "order": 6,
        "pattern": "^[0-9]{4}-[0-9]{2}-[0-9]{2}(T[0-9]{2}:[0-9]{2}:[0-9]{2})?$",
        "examples": [
          "2021-01-01",
          "2021-01-01T12:00:00"
        ],
        "description": "A date and optional time for the oldest article allowed. This should\nbe in ISO 8601 format.\n"
      },
      "search_query": {
        "type": "string",
        "order": 1,
        "examples": [
          "+bitcoin OR +crypto",
          "sunak AND (truss OR johnson)"
        ],
        "description": "Search query. See https://newsapi.org/docs/endpoints/everything for \ninformation.\n"
      },
      "exclude_domains": {
        "type": "array",
        "items": {
          "type": "string"
        },
        "order": 5,
        "description": "A comma-seperated string of domains (eg bbc.co.uk, techcrunch.com,\nengadget.com) to remove from the results.\n"
      }
    },
    "additionalProperties": true
  },
  "jobInfo": {
    "id": "de6bae87-78d6-404d-b4d0-6c628a53f3cd",
    "configType": "get_spec",
    "configId": "Optional.empty",
    "createdAt": 1705523876585,
    "endedAt": 1705523876585,
    "succeeded": true,
    "connectorConfigurationUpdated": false,
    "logs": {
      "logLines": []
    }
  }
}