{
  "sourceDefinitionId": "d8286229-c680-4063-8c59-23b9b391c700",
  "documentationUrl": "https://docs.airbyte.com/integrations/sources/pipedrive",
  "connectionSpecification": {
    "type": "object",
    "title": "Pipedrive Spec",
    "required": [
      "replication_start_date",
      "api_token"
    ],
    "properties": {
      "api_token": {
        "type": "string",
        "title": "API Token",
        "description": "The Pipedrive API Token.",
        "airbyte_secret": true
      },
      "replication_start_date": {
        "type": "string",
        "title": "Start Date",
        "examples": [
          "2017-01-25 00:00:00Z"
        ],
        "description": "UTC date and time in the format 2017-01-25T00:00:00Z. Any data before this date will not be replicated. When specified and not None, then stream will behave as incremental"
      }
    },
    "additionalProperties": true
  },
  "jobInfo": {
    "id": "e539f2a6-930a-4502-ac31-5d9669dbfdd8",
    "configType": "get_spec",
    "configId": "Optional.empty",
    "createdAt": 1705523875098,
    "endedAt": 1705523875098,
    "succeeded": true,
    "connectorConfigurationUpdated": false,
    "logs": {
      "logLines": []
    }
  }
}