{
  "sourceDefinitionId": "77d5ca6b-d345-4dce-ba1e-1935a75778b8",
  "name": "Open Exchange Rates",
  "dockerRepository": "airbyte/source-open-exchange-rates",
  "dockerImageTag": "0.2.0",
  "documentationUrl": "https://docs.airbyte.com/integrations/sources/open-exchange-rates",
  "protocolVersion": "0.2.0",
  "custom": false,
  "supportLevel": "community",
  "releaseStage": "alpha",
  "releaseDate": "2023-10-02",
  "sourceType": "api"
}