{
  "sourceDefinitionId": "921d9608-3915-450b-8078-0af18801ea1b",
  "documentationUrl": "https://docs.airbyte.com/integrations/sources/rocket-chat",
  "connectionSpecification": {
    "type": "object",
    "title": "Rocket Chat Spec",
    "$schema": "http://json-schema.org/draft-07/schema#",
    "required": [
      "token",
      "user_id",
      "endpoint"
    ],
    "properties": {
      "token": {
        "type": "string",
        "title": "Token",
        "description": "Your API Token. See <a href=\"https://developer.rocket.chat/reference/api/rest-api/endpoints/other-important-endpoints/access-tokens-endpoints\">here</a>. The token is case sensitive.",
        "airbyte_secret": true
      },
      "user_id": {
        "type": "string",
        "title": "User ID.",
        "description": "Your User Id."
      },
      "endpoint": {
        "type": "string",
        "title": "Endpoint",
        "examples": [
          "https://airbyte-connector-poc.rocket.chat",
          "https://hey.yoursite.com"
        ],
        "description": "Your rocket.chat instance URL."
      }
    },
    "additionalProperties": true
  },
  "jobInfo": {
    "id": "7cdeae61-c380-4851-b192-cb48f604993a",
    "configType": "get_spec",
    "configId": "Optional.empty",
    "createdAt": 1705523885675,
    "endedAt": 1705523885675,
    "succeeded": true,
    "connectorConfigurationUpdated": false,
    "logs": {
      "logLines": []
    }
  }
}