{
  "sourceDefinitionId": "f9b6c538-ee12-42fe-8d4b-0c10f5955417",
  "name": "TPLcentral",
  "dockerRepository": "airbyte/source-tplcentral",
  "dockerImageTag": "0.1.1",
  "documentationUrl": "https://docs.airbyte.com/integrations/sources/tplcentral",
  "protocolVersion": "0.2.0",
  "custom": false,
  "supportLevel": "community",
  "releaseStage": "alpha",
  "sourceType": "api"
}