{
  "sourceDefinitionId": "80a54ea2-9959-4040-aac1-eee42423ec9b",
  "documentationUrl": "https://docs.airbyte.com/integrations/sources/monday",
  "connectionSpecification": {
    "type": "object",
    "title": "Monday Spec",
    "$schema": "http://json-schema.org/draft-07/schema#",
    "required": [],
    "properties": {
      "credentials": {
        "type": "object",
        "oneOf": [
          {
            "type": "object",
            "title": "OAuth2.0",
            "required": [
              "auth_type",
              "client_id",
              "client_secret",
              "access_token"
            ],
            "properties": {
              "auth_type": {
                "type": "string",
                "const": "oauth2.0",
                "order": 1
              },
              "client_id": {
                "type": "string",
                "title": "Client ID",
                "description": "The Client ID of your OAuth application.",
                "airbyte_secret": true
              },
              "subdomain": {
                "type": "string",
                "order": 0,
                "title": "Subdomain/Slug",
                "default": "",
                "description": "Slug/subdomain of the account, or the first part of the URL that comes before .monday.com"
              },
              "access_token": {
                "type": "string",
                "title": "Access Token",
                "description": "Access Token for making authenticated requests.",
                "airbyte_secret": true
              },
              "client_secret": {
                "type": "string",
                "title": "Client Secret",
                "description": "The Client Secret of your OAuth application.",
                "airbyte_secret": true
              }
            }
          },
          {
            "type": "object",
            "title": "API Token",
            "required": [
              "auth_type",
              "api_token"
            ],
            "properties": {
              "api_token": {
                "type": "string",
                "title": "Personal API Token",
                "description": "API Token for making authenticated requests.",
                "airbyte_secret": true
              },
              "auth_type": {
                "type": "string",
                "const": "api_token",
                "order": 0
              }
            }
          }
        ],
        "title": "Authorization Method"
      }
    },
    "additionalProperties": true
  },
  "advancedAuth": {
    "authFlowType": "oauth2.0",
    "predicateKey": [
      "credentials",
      "auth_type"
    ],
    "predicateValue": "oauth2.0",
    "oauthConfigSpecification": {
      "oauthUserInputFromConnectorConfigSpecification": {
        "type": "object",
        "properties": {
          "subdomain": {
            "type": "string",
            "path_in_connector_config": [
              "credentials",
              "subdomain"
            ]
          }
        },
        "additionalProperties": false
      },
      "completeOAuthOutputSpecification": {
        "type": "object",
        "properties": {
          "access_token": {
            "type": "string",
            "path_in_connector_config": [
              "credentials",
              "access_token"
            ]
          }
        },
        "additionalProperties": false
      },
      "completeOAuthServerInputSpecification": {
        "type": "object",
        "properties": {
          "client_id": {
            "type": "string"
          },
          "client_secret": {
            "type": "string"
          }
        },
        "additionalProperties": true
      },
      "completeOAuthServerOutputSpecification": {
        "type": "object",
        "properties": {
          "client_id": {
            "type": "string",
            "path_in_connector_config": [
              "credentials",
              "client_id"
            ]
          },
          "client_secret": {
            "type": "string",
            "path_in_connector_config": [
              "credentials",
              "client_secret"
            ]
          }
        },
        "additionalProperties": false
      }
    }
  },
  "jobInfo": {
    "id": "dc41ac2d-3e71-4476-9662-6985b50bc882",
    "configType": "get_spec",
    "configId": "Optional.empty",
    "createdAt": 1705523882356,
    "endedAt": 1705523882356,
    "succeeded": true,
    "connectorConfigurationUpdated": false,
    "logs": {
      "logLines": []
    }
  }
}