{
  "sourceDefinitionId": "9e0556f4-69df-4522-a3fb-03264d36b348",
  "name": "Marketo",
  "dockerRepository": "airbyte/source-marketo",
  "dockerImageTag": "1.2.4",
  "documentationUrl": "https://docs.airbyte.com/integrations/sources/marketo",
  "icon": "<svg xmlns=\"http://www.w3.org/2000/svg\" width=\"250\" height=\"250\" fill=\"none\"><path fill=\"#5C4C9F\" d=\"M207.202 181.916V55.676L158.167 29v192l49.035-39.084ZM95.83 45.689l39.51 11.7v121.68l-39.51 17.259V45.689ZM73.006 70.511 42.91 65.66l-.144 108.981 30.24-7.989V70.511Z\"/></svg>",
  "protocolVersion": "0.2.0",
  "custom": false,
  "supportLevel": "certified",
  "releaseStage": "generally_available",
  "sourceType": "api"
}