{
  "sourceDefinitionId": "2bf6c581-bec5-4e32-891d-de33036bd631",
  "documentationUrl": "https://docsurl.com",
  "connectionSpecification": {
    "type": "object",
    "title": "Oura Spec",
    "$schema": "http://json-schema.org/draft-07/schema#",
    "required": [
      "api_key"
    ],
    "properties": {
      "api_key": {
        "type": "string",
        "order": 0,
        "description": "API Key",
        "airbyte_secret": true
      },
      "end_datetime": {
        "type": "string",
        "order": 2,
        "pattern": "^(-?(?:[1-9][0-9]*)?[0-9]{4})-(1[0-2]|0[1-9])-(3[01]|0[1-9]|[12][0-9])T(2[0-3]|[01][0-9]):([0-5][0-9]):([0-5][0-9])(Z|[+-](?:2[0-3]|[01][0-9]):[0-5][0-9])?$",
        "description": "End datetime to sync until. Default is current UTC datetime."
      },
      "start_datetime": {
        "type": "string",
        "order": 1,
        "pattern": "^(-?(?:[1-9][0-9]*)?[0-9]{4})-(1[0-2]|0[1-9])-(3[01]|0[1-9]|[12][0-9])T(2[0-3]|[01][0-9]):([0-5][0-9]):([0-5][0-9])(Z|[+-](?:2[0-3]|[01][0-9]):[0-5][0-9])?$",
        "description": "Start datetime to sync from. Default is current UTC datetime minus 1\nday.\n"
      }
    },
    "additionalProperties": true
  },
  "jobInfo": {
    "id": "f1477934-7c4d-4ea2-9b0c-869d7c47ab79",
    "configType": "get_spec",
    "configId": "Optional.empty",
    "createdAt": 1705523894742,
    "endedAt": 1705523894742,
    "succeeded": true,
    "connectorConfigurationUpdated": false,
    "logs": {
      "logLines": []
    }
  }
}