{
  "sourceDefinitionId": "6c504e48-14aa-4221-9a72-19cf5ff1ae78",
  "name": "Auth0",
  "dockerRepository": "airbyte/source-auth0",
  "dockerImageTag": "0.5.1",
  "documentationUrl": "https://docs.airbyte.com/integrations/sources/auth0",
  "icon": "<svg xmlns=\"http://www.w3.org/2000/svg\" width=\"250\" height=\"250\" fill=\"none\"><path fill=\"#000\" fill-rule=\"evenodd\" d=\"M189.103 26.243H60.746L40.9 87.924c-12.28 37.75-1.428 74.502 31.982 98.861l51.971 36.61 51.971-36.61c33.409-24.359 44.403-61.111 32.124-98.86l-19.845-61.682Zm19.845 61.681-51.97 36.753 19.846 62.108-51.971-37.322-51.971 37.322 19.846-62.108L40.9 87.924h64.107l19.846-61.68 19.846 61.68h64.249Z\" clip-rule=\"evenodd\"/></svg>",
  "protocolVersion": "0.2.0",
  "custom": false,
  "supportLevel": "community",
  "releaseStage": "alpha",
  "releaseDate": "2023-08-10",
  "sourceType": "api"
}