{
  "sourceDefinitionId": "1cfc30c7-82db-43f4-9fd7-ac1b42312cda",
  "documentationUrl": "https://docs.airbyte.com/integrations/sources/datadog",
  "connectionSpecification": {
    "type": "object",
    "title": "Datadog Source Spec",
    "$schema": "http://json-schema.org/draft-07/schema#",
    "required": [
      "api_key",
      "application_key"
    ],
    "properties": {
      "site": {
        "enum": [
          "datadoghq.com",
          "us3.datadoghq.com",
          "us5.datadoghq.com",
          "datadoghq.eu",
          "ddog-gov.com"
        ],
        "type": "string",
        "order": 5,
        "title": "Site",
        "default": "datadoghq.com",
        "description": "The site where Datadog data resides in."
      },
      "query": {
        "type": "string",
        "order": 3,
        "title": "Query",
        "description": "The search query. This just applies to Incremental syncs. If empty, it'll collect all logs."
      },
      "api_key": {
        "type": "string",
        "order": 1,
        "title": "API Key",
        "description": "Datadog API key",
        "airbyte_secret": true
      },
      "queries": {
        "type": "array",
        "items": {
          "type": "object",
          "required": [
            "name",
            "data_source",
            "query"
          ],
          "properties": {
            "name": {
              "type": "string",
              "order": 1,
              "title": "Query Name",
              "description": "The variable name for use in queries."
            },
            "query": {
              "type": "string",
              "order": 3,
              "title": "Query",
              "description": "A classic query string."
            },
            "data_source": {
              "enum": [
                "metrics",
                "cloud_cost",
                "logs",
                "rum"
              ],
              "type": "string",
              "order": 2,
              "title": "Data Source",
              "description": "A data source that is powered by the platform."
            }
          }
        },
        "order": 8,
        "title": "Queries",
        "default": [],
        "description": "List of queries to be run and used as inputs."
      },
      "end_date": {
        "type": "string",
        "order": 6,
        "title": "End date",
        "pattern": "^[0-9]{4}-[0-9]{2}-[0-9]{2}T[0-9]{2}:[0-9]{2}:[0-9]{2}Z$",
        "examples": [
          "2022-10-01T00:00:00Z"
        ],
        "description": "UTC date and time in the format 2017-01-25T00:00:00Z. Data after this date will  not be replicated. An empty value will represent the current datetime for each  execution. This just applies to Incremental syncs."
      },
      "start_date": {
        "type": "string",
        "order": 4,
        "title": "Start date",
        "pattern": "^[0-9]{4}-[0-9]{2}-[0-9]{2}T[0-9]{2}:[0-9]{2}:[0-9]{2}Z$",
        "examples": [
          "2022-10-01T00:00:00Z"
        ],
        "description": "UTC date and time in the format 2017-01-25T00:00:00Z. Any data before this date will not be replicated. This just applies to Incremental syncs."
      },
      "application_key": {
        "type": "string",
        "order": 2,
        "title": "Application Key",
        "description": "Datadog application key",
        "airbyte_secret": true
      },
      "max_records_per_request": {
        "type": "integer",
        "order": 7,
        "title": "Max records per requests",
        "default": 5000,
        "maximum": 5000,
        "minimum": 1,
        "description": "Maximum number of records to collect per request."
      }
    },
    "additionalProperties": true
  },
  "jobInfo": {
    "id": "64e7a500-95dd-4d32-9652-72341c558de1",
    "configType": "get_spec",
    "configId": "Optional.empty",
    "createdAt": 1705523892807,
    "endedAt": 1705523892807,
    "succeeded": true,
    "connectorConfigurationUpdated": false,
    "logs": {
      "logLines": []
    }
  }
}