{
  "sourceDefinitionId": "dfffecb7-9a13-43e9-acdc-b92af7997ca9",
  "documentationUrl": "https://docs.airbyte.com/integrations/sources/close-com",
  "connectionSpecification": {
    "type": "object",
    "title": "Close.com Spec",
    "$schema": "http://json-schema.org/draft-07/schema#",
    "required": [
      "api_key"
    ],
    "properties": {
      "api_key": {
        "type": "string",
        "title": "API Key",
        "description": "Close.com API key (usually starts with 'api_'; find yours <a href=\"https://app.close.com/settings/api/\">here</a>).",
        "airbyte_secret": true
      },
      "start_date": {
        "type": "string",
        "title": "Replication Start Date",
        "format": "date",
        "default": "2021-01-01",
        "pattern": "^[0-9]{4}-[0-9]{2}-[0-9]{2}$",
        "examples": [
          "2021-01-01"
        ],
        "description": "The start date to sync data; all data after this date will be replicated. Leave blank to retrieve all the data available in the account. Format: YYYY-MM-DD."
      }
    },
    "additionalProperties": true
  },
  "jobInfo": {
    "id": "c5a8898f-1e4c-4872-a6e3-f7597dabcd84",
    "configType": "get_spec",
    "configId": "Optional.empty",
    "createdAt": 1705523892895,
    "endedAt": 1705523892895,
    "succeeded": true,
    "connectorConfigurationUpdated": false,
    "logs": {
      "logLines": []
    }
  }
}