{
  "sourceDefinitionId": "8e1ae2d2-4790-44d3-9d83-75b3fc3940ff",
  "documentationUrl": "https://docs.airbyte.com/integrations/sources/datascope",
  "connectionSpecification": {
    "type": "object",
    "title": "Datascope Spec",
    "$schema": "http://json-schema.org/draft-07/schema#",
    "required": [
      "api_key",
      "start_date"
    ],
    "properties": {
      "api_key": {
        "type": "string",
        "title": "Authorization",
        "description": "API Key",
        "airbyte_secret": true
      },
      "start_date": {
        "type": "string",
        "title": "Start Date",
        "pattern": "^[0-9]{2}/[0-9]{2}/[0-9]{4} [0-9]{2}:[0-9]{2}$",
        "examples": [
          "dd/mm/YYYY HH:MM"
        ],
        "description": "Start date for the data to be replicated"
      }
    },
    "additionalProperties": true
  },
  "jobInfo": {
    "id": "13c0fd21-4640-4da9-b62e-6b71448eede5",
    "configType": "get_spec",
    "configId": "Optional.empty",
    "createdAt": 1705523893779,
    "endedAt": 1705523893779,
    "succeeded": true,
    "connectorConfigurationUpdated": false,
    "logs": {
      "logLines": []
    }
  }
}