{
  "sourceDefinitionId": "7a4327c4-315a-11ec-8d3d-0242ac130003",
  "documentationUrl": "https://docs.airbyte.com/integrations/sources/strava",
  "connectionSpecification": {
    "type": "object",
    "title": "Strava Spec",
    "$schema": "https://json-schema.org/draft-07/schema#",
    "required": [
      "client_id",
      "client_secret",
      "refresh_token",
      "athlete_id",
      "start_date"
    ],
    "properties": {
      "auth_type": {
        "enum": [
          "Client"
        ],
        "type": "string",
        "const": "Client",
        "default": "Client"
      },
      "client_id": {
        "type": "string",
        "order": 0,
        "title": "Client ID",
        "pattern": "^[0-9_\\-]+$",
        "examples": [
          "12345"
        ],
        "description": "The Client ID of your Strava developer application."
      },
      "athlete_id": {
        "type": "integer",
        "order": 3,
        "title": "Athlete ID",
        "pattern": "^[0-9_\\-]+$",
        "examples": [
          "17831421"
        ],
        "description": "The Athlete ID of your Strava developer application."
      },
      "start_date": {
        "type": "string",
        "order": 4,
        "title": "Start Date",
        "format": "date-time",
        "examples": [
          "2021-03-01T00:00:00Z"
        ],
        "description": "UTC date and time. Any data before this date will not be replicated."
      },
      "client_secret": {
        "type": "string",
        "order": 1,
        "title": "Client Secret",
        "pattern": "^[0-9a-fA-F]+$",
        "examples": [
          "fc6243f283e51f6ca989aab298b17da125496f50"
        ],
        "description": "The Client Secret of your Strava developer application.",
        "airbyte_secret": true
      },
      "refresh_token": {
        "type": "string",
        "order": 2,
        "title": "Refresh Token",
        "pattern": "^[0-9a-fA-F]+$",
        "examples": [
          "fc6243f283e51f6ca989aab298b17da125496f50"
        ],
        "description": "The Refresh Token with the activity: read_all permissions.",
        "airbyte_secret": true
      }
    },
    "additionalProperties": true
  },
  "advancedAuth": {
    "authFlowType": "oauth2.0",
    "predicateKey": [
      "auth_type"
    ],
    "predicateValue": "Client",
    "oauthConfigSpecification": {
      "oauthUserInputFromConnectorConfigSpecification": null,
      "completeOAuthOutputSpecification": {
        "type": "object",
        "properties": {
          "refresh_token": {
            "type": "string",
            "path_in_connector_config": [
              "refresh_token"
            ]
          }
        },
        "additionalProperties": true
      },
      "completeOAuthServerInputSpecification": {
        "type": "object",
        "properties": {
          "client_id": {
            "type": "string"
          },
          "client_secret": {
            "type": "string"
          }
        },
        "additionalProperties": true
      },
      "completeOAuthServerOutputSpecification": {
        "type": "object",
        "properties": {
          "client_id": {
            "type": "string",
            "path_in_connector_config": [
              "client_id"
            ]
          },
          "client_secret": {
            "type": "string",
            "path_in_connector_config": [
              "client_secret"
            ]
          }
        },
        "additionalProperties": false
      }
    }
  },
  "jobInfo": {
    "id": "b02eba92-4d88-497a-bfbd-5f4de69b009d",
    "configType": "get_spec",
    "configId": "Optional.empty",
    "createdAt": 1705523891238,
    "endedAt": 1705523891238,
    "succeeded": true,
    "connectorConfigurationUpdated": false,
    "logs": {
      "logLines": []
    }
  }
}