{
  "sourceDefinitionId": "e094cb9a-26de-4645-8761-65c0c425d1de",
  "documentationUrl": "https://docs.airbyte.com/integrations/sources/stripe",
  "connectionSpecification": {
    "type": "object",
    "title": "Stripe Source Spec",
    "$schema": "http://json-schema.org/draft-07/schema#",
    "required": [
      "client_secret",
      "account_id"
    ],
    "properties": {
      "account_id": {
        "type": "string",
        "order": 0,
        "title": "Account ID",
        "description": "Your Stripe account ID (starts with 'acct_', find yours <a href=\"https://dashboard.stripe.com/settings/account\">here</a>)."
      },
      "start_date": {
        "type": "string",
        "order": 2,
        "title": "Replication start date",
        "format": "date-time",
        "default": "2017-01-25T00:00:00Z",
        "pattern": "^[0-9]{4}-[0-9]{2}-[0-9]{2}T[0-9]{2}:[0-9]{2}:[0-9]{2}Z$",
        "examples": [
          "2017-01-25T00:00:00Z"
        ],
        "description": "UTC date and time in the format 2017-01-25T00:00:00Z. Only data generated after this date will be replicated."
      },
      "num_workers": {
        "type": "integer",
        "order": 5,
        "title": "Number of concurrent workers",
        "default": 2,
        "maximum": 3,
        "minimum": 1,
        "examples": [
          1,
          2,
          3
        ],
        "description": "The number of worker thread to use for the sync. The bigger the value is, the faster the sync will be. Be careful as rate limiting is not implemented."
      },
      "slice_range": {
        "type": "integer",
        "order": 4,
        "title": "Data request time increment in days",
        "default": 365,
        "minimum": 1,
        "examples": [
          1,
          3,
          10,
          30,
          180,
          360
        ],
        "description": "The time increment used by the connector when requesting data from the Stripe API. The bigger the value is, the less requests will be made and faster the sync will be. On the other hand, the more seldom the state is persisted."
      },
      "client_secret": {
        "type": "string",
        "order": 1,
        "title": "Secret Key",
        "description": "Stripe API key (usually starts with 'sk_live_'; find yours <a href=\"https://dashboard.stripe.com/apikeys\">here</a>).",
        "airbyte_secret": true
      },
      "lookback_window_days": {
        "type": "integer",
        "order": 3,
        "title": "Lookback Window in days",
        "default": 0,
        "minimum": 0,
        "description": "When set, the connector will always re-export data from the past N days, where N is the value set here. This is useful if your data is frequently updated after creation. Applies only to streams that do not support event-based incremental syncs: CheckoutSessionLineItems,  Events, SetupAttempts, ShippingRates, BalanceTransactions, Files, FileLinks. More info <a href=\"https://docs.airbyte.com/integrations/sources/stripe#requirements\">here</a>"
      }
    }
  },
  "jobInfo": {
    "id": "15d31b2b-ce12-4198-90ba-fbd8d4279105",
    "configType": "get_spec",
    "configId": "Optional.empty",
    "createdAt": 1705523893219,
    "endedAt": 1705523893219,
    "succeeded": true,
    "connectorConfigurationUpdated": false,
    "logs": {
      "logLines": []
    }
  }
}