{
  "sourceDefinitionId": "5e6175e5-68e1-4c17-bff9-56103bbb0d80",
  "documentationUrl": "https://docs.airbyte.com/integrations/sources/gitlab",
  "connectionSpecification": {
    "type": "object",
    "title": "Source Gitlab Spec",
    "$schema": "http://json-schema.org/draft-07/schema#",
    "required": [
      "credentials"
    ],
    "properties": {
      "groups": {
        "type": "string",
        "title": "Groups",
        "examples": [
          "airbyte.io"
        ],
        "description": "[DEPRECATED] Space-delimited list of groups. e.g. airbyte.io.",
        "airbyte_hidden": true
      },
      "api_url": {
        "type": "string",
        "order": 2,
        "title": "API URL",
        "default": "gitlab.com",
        "examples": [
          "gitlab.com",
          "https://gitlab.com",
          "https://gitlab.company.org"
        ],
        "description": "Please enter your basic URL from GitLab instance."
      },
      "projects": {
        "type": "string",
        "title": "Projects",
        "examples": [
          "airbyte.io/documentation"
        ],
        "description": "[DEPRECATED] Space-delimited list of projects. e.g. airbyte.io/documentation meltano/tap-gitlab.",
        "airbyte_hidden": true
      },
      "start_date": {
        "type": "string",
        "order": 1,
        "title": "Start Date",
        "format": "date-time",
        "pattern": "^[0-9]{4}-[0-9]{2}-[0-9]{2}T[0-9]{2}:[0-9]{2}:[0-9]{2}Z$",
        "examples": [
          "2021-03-01T00:00:00Z"
        ],
        "description": "The date from which you'd like to replicate data for GitLab API, in the format YYYY-MM-DDT00:00:00Z. Optional. If not set, all data will be replicated. All data generated after this date will be replicated."
      },
      "credentials": {
        "type": "object",
        "oneOf": [
          {
            "type": "object",
            "title": "OAuth2.0",
            "required": [
              "client_id",
              "client_secret",
              "refresh_token",
              "access_token",
              "token_expiry_date"
            ],
            "properties": {
              "auth_type": {
                "type": "string",
                "const": "oauth2.0"
              },
              "client_id": {
                "type": "string",
                "description": "The API ID of the Gitlab developer application.",
                "airbyte_secret": true
              },
              "access_token": {
                "type": "string",
                "description": "Access Token for making authenticated requests.",
                "airbyte_secret": true
              },
              "client_secret": {
                "type": "string",
                "description": "The API Secret the Gitlab developer application.",
                "airbyte_secret": true
              },
              "refresh_token": {
                "type": "string",
                "description": "The key to refresh the expired access_token.",
                "airbyte_secret": true
              },
              "token_expiry_date": {
                "type": "string",
                "format": "date-time",
                "description": "The date-time when the access token should be refreshed."
              }
            }
          },
          {
            "type": "object",
            "title": "Private Token",
            "required": [
              "access_token"
            ],
            "properties": {
              "auth_type": {
                "type": "string",
                "const": "access_token"
              },
              "access_token": {
                "type": "string",
                "title": "Private Token",
                "description": "Log into your Gitlab account and then generate a personal Access Token.",
                "airbyte_secret": true
              }
            }
          }
        ],
        "order": 0,
        "title": "Authorization Method"
      },
      "groups_list": {
        "type": "array",
        "items": {
          "type": "string"
        },
        "order": 3,
        "title": "Groups",
        "examples": [
          "airbyte.io"
        ],
        "description": "List of groups. e.g. airbyte.io."
      },
      "projects_list": {
        "type": "array",
        "items": {
          "type": "string"
        },
        "order": 4,
        "title": "Projects",
        "examples": [
          "airbyte.io/documentation"
        ],
        "description": "Space-delimited list of projects. e.g. airbyte.io/documentation meltano/tap-gitlab."
      }
    },
    "additionalProperties": true
  },
  "advancedAuth": {
    "authFlowType": "oauth2.0",
    "predicateKey": [
      "credentials",
      "auth_type"
    ],
    "predicateValue": "oauth2.0",
    "oauthConfigSpecification": {
      "oauthUserInputFromConnectorConfigSpecification": {
        "type": "object",
        "properties": {
          "domain": {
            "type": "string",
            "path_in_connector_config": [
              "api_url"
            ]
          }
        }
      },
      "completeOAuthOutputSpecification": {
        "type": "object",
        "properties": {
          "access_token": {
            "type": "string",
            "path_in_connector_config": [
              "credentials",
              "access_token"
            ]
          },
          "refresh_token": {
            "type": "string",
            "path_in_connector_config": [
              "credentials",
              "refresh_token"
            ]
          },
          "token_expiry_date": {
            "type": "string",
            "format": "date-time",
            "path_in_connector_config": [
              "credentials",
              "token_expiry_date"
            ]
          }
        }
      },
      "completeOAuthServerInputSpecification": {
        "type": "object",
        "properties": {
          "client_id": {
            "type": "string"
          },
          "client_secret": {
            "type": "string"
          }
        }
      },
      "completeOAuthServerOutputSpecification": {
        "type": "object",
        "properties": {
          "client_id": {
            "type": "string",
            "path_in_connector_config": [
              "credentials",
              "client_id"
            ]
          },
          "client_secret": {
            "type": "string",
            "path_in_connector_config": [
              "credentials",
              "client_secret"
            ]
          }
        }
      }
    }
  },
  "jobInfo": {
    "id": "ad67d158-1922-4cf9-bfd6-4b6f0ca022f3",
    "configType": "get_spec",
    "configId": "Optional.empty",
    "createdAt": 1705523875873,
    "endedAt": 1705523875873,
    "succeeded": true,
    "connectorConfigurationUpdated": false,
    "logs": {
      "logLines": []
    }
  }
}